2 2
3 2
2 3
4 2
2 4
5 2
2 5
6 4 
4 6 
7 4
4 7
8 4
4 8
9 4
4 9
9 7
7 9
7 7
8 8
9 9
10 2
2 10
11 2
2 11
12 2
2 12
13 2
2 13
13 3
3 13
13 4
4 13
13 5
5 13
13 6
6 13
11 6
6 11
11 7
7 11
11 8
8 11
11 11
11 12
12 11
11 13
13 11